ISSS608-VAA - Hands-on Exercise 5
…
29.6.3 Text Data Processing

In this code chunk below, unnest_tokens() of tidytext package is used to split the dataset into tokens, while stop_words() is used to remove stop-words.

usenet_words <- cleaned_text %>%
  unnest_tokens(word, text) %>%
  filter(str_detect(word, "[a-z']$"),
         !word %in% stop_words$word)

Now that we’ve removed the headers, signatures, and formatting, we can start exploring common words. For starters, we could find the most common words in the entire dataset, or within particular newsgroups.

usenet_words %>%
  count(word, sort = TRUE)

# A tibble: 5,542 × 2
   word           n
   <chr>      <int>
 1 people        57
 2 time          50
 3 jesus         47
 4 god           44
 5 message       40
 6 br            27
 7 bible         23
 8 drive         23
 9 homosexual    23
10 read          22
# ℹ 5,532 more rows
…
